{
   "abstract" : "simple license checker for source files",
   "author" : [
      "Jonas Smedegaard (JONASS) <jonass@cpan.org>"
   ],
   "dynamic_config" : 0,
   "generated_by" : "Dist::Inkt::Profile::TOBYINK version 0.024, CPAN::Meta::Converter version 2.150010",
   "keywords" : [
      "Licensing",
      "Sourcecode"
   ],
   "license" : [
      "agpl_3"
   ],
   "meta-spec" : {
      "url" : "http://search.cpan.org/perldoc?CPAN::Meta::Spec",
      "version" : 2
   },
   "name" : "App-Licensecheck",
   "no_index" : {
      "directory" : [
         "eg",
         "examples",
         "inc",
         "t",
         "xt"
      ]
   },
   "optional_features" : {},
   "prereqs" : {
      "configure" : {
         "requires" : {
            "ExtUtils::MakeMaker" : "6.17"
         }
      },
      "runtime" : {
         "requires" : {
            "Encode" : "2.93",
            "Fcntl" : "0",
            "Feature::Compat::Class" : "0.04",
            "Feature::Compat::Try" : "0",
            "Getopt::Long" : "2.24",
            "IO::Interactive" : "0",
            "List::SomeUtils" : "0",
            "Log::Any" : "0",
            "Log::Any::Adapter::Screen" : "0",
            "Path::Iterator::Rule" : "0",
            "Path::Tiny" : "0.062",
            "Pod::Constants" : "0",
            "Pod::Usage" : "1.60",
            "String::Copyright" : "0.003",
            "String::Escape" : "0",
            "autodie" : "0",
            "namespace::clean" : "0",
            "perl" : "5.012000"
         }
      },
      "test" : {
         "recommends" : {
            "Regexp::Pattern::License" : "v3.9.0"
         },
         "requires" : {
            "Encode" : "0",
            "Encode::Locale" : "0",
            "Test2::V0" : "0.000060",
            "Test::Without::Module" : "0"
         }
      }
   },
   "provides" : {
      "App::Licensecheck" : {
         "file" : "lib/App/Licensecheck.pm",
         "version" : "v3.3.5"
      }
   },
   "release_status" : "stable",
   "resources" : {
      "bugtracker" : {
         "web" : "https://bugs.debian.org/cgi-bin/pkgreport.cgi?pkg=licensecheck"
      },
      "homepage" : "https://metacpan.org/pod/App::Licensecheck",
      "license" : [
         "http://www.gnu.org/licenses/agpl-3.0.txt"
      ],
      "repository" : {
         "type" : "git",
         "web" : "https://salsa.debian.org/build-common-team/licensecheck.git"
      },
      "x_identifier" : "http://purl.org/NET/cpan-uri/dist/App-Licensecheck/project"
   },
   "version" : "v3.3.5",
   "x_contributors" : [
      "Paul Wise <pabs@debian.org>"
   ],
   "x_help_wanted" : [
      "documenter",
      "tester"
   ],
   "x_provides_scripts" : {
      "licensecheck" : {
         "file" : "bin/licensecheck"
      }
   },
   "x_serialization_backend" : "JSON::PP version 4.07"
}
